{
	"additionalNodes": [ {
		"children": [ {
			"children": [],
			"id": "yy6bMT8mhK4axvVOFTfAqvvYij4BABWn",
			"nodeType": "luaCommand",
			"parameters": [ {
				"name": "pewee",
				"value": "pewees[5] "
			}, {
				"name": "commander",
				"value": "com_pos"
			}, {
				"name": "scriptName",
				"value": "nota_schimper_homeworkassignments.sandsail_move_with_commander"
			} ],
			"scriptName": "nota_schimper_homeworkassignments.sandsail_move_with_commander"
		}, {
			"children": [],
			"id": "ddxxnJA1PdONRSV5a7EruQvpt1qLnxfl",
			"nodeType": "luaCommand",
			"parameters": [ {
				"name": "condition",
				"value": "true"
			}, {
				"name": "scriptName",
				"value": "waitUntil"
			} ],
			"scriptName": "waitUntil"
		} ],
		"id": "NuhTSn8Odh42LkaceJ48JefNhh2N8xFW",
		"nodeType": "luaCondition",
		"parameters": [ {
			"name": "expression",
			"value": "pewees[5] ~= nil"
		}, {
			"name": "repeat",
			"value": "false"
		} ]
	}, {
		"children": [ {
			"children": [],
			"id": "2NGHF0VZQfy7mnOouMrjg5QnncYiDr1p",
			"nodeType": "luaCommand",
			"parameters": [ {
				"name": "pewee",
				"value": "pewees[4] "
			}, {
				"name": "commander",
				"value": "com_pos"
			}, {
				"name": "scriptName",
				"value": "nota_schimper_homeworkassignments.sandsail_move_with_commander"
			} ],
			"scriptName": "nota_schimper_homeworkassignments.sandsail_move_with_commander"
		}, {
			"children": [],
			"id": "jeVtACBb8TeLNpeGlz0KXQAElXA3SnyM",
			"nodeType": "luaCommand",
			"parameters": [ {
				"name": "condition",
				"value": "true"
			}, {
				"name": "scriptName",
				"value": "waitUntil"
			} ],
			"scriptName": "waitUntil"
		} ],
		"id": "hwkPEmMVXfcePqNNYSL6752uf5rw8dgD",
		"nodeType": "luaCondition",
		"parameters": [ {
			"name": "expression",
			"value": "pewees[4] ~= nil"
		}, {
			"name": "repeat",
			"value": "false"
		} ]
	} ],
	"additionalParameters": {
		"root": {
			"height": 88,
			"width": 180
		}
	},
	"inputs": [],
	"outputs": [],
	"properties": {
		"1sfuHeMx8JaDI4F9G26hVYCsPeuHmcP4": {
			"height": 60,
			"title": "sequence",
			"width": 143,
			"x": 295,
			"y": 12
		},
		"2NGHF0VZQfy7mnOouMrjg5QnncYiDr1p": {
			"height": 92,
			"title": "nota_schimper_homeworkassignments.sandsail_move_with_commander",
			"width": 525,
			"x": 2881,
			"y": 1050
		},
		"4mJIyF1Bavc6tppP7sGi3UCfagKlOPyI": {
			"height": 60,
			"title": "sequence",
			"width": 143,
			"x": 1705,
			"y": -5
		},
		"9ol7BfNPRs5R1WbBFybekRJu5d6MHO5m": {
			"height": 60,
			"title": "repeat",
			"width": 131,
			"x": 1132,
			"y": -114
		},
		"AG7PxFEHPCxIepOgMhamy6qZXYHWkgtC": {
			"height": 94,
			"title": "store",
			"width": 378,
			"x": 1559,
			"y": -240
		},
		"D29cyz0N1gRguVPz3KTfNU0CRaPuWETT": {
			"height": 72,
			"title": "nota_schimper_homeworkassignments.sandsail_move_with_wind",
			"width": 478,
			"x": 1688,
			"y": 212
		},
		"DWL8GJ4xdG3okusytCmxya4pMpg2rrlz": {
			"height": 90,
			"title": "luaCondition",
			"width": 194,
			"x": 1371,
			"y": 167
		},
		"DhEhK6Z42IKCiuo6v4yFOP1kkAASXbz1": {
			"height": 94,
			"title": "store",
			"width": 498,
			"x": 504,
			"y": -500
		},
		"ECpJLLzhHnjH5c3vUojgaf3C58skaX7e": {
			"height": 60,
			"title": "sequence",
			"width": 143,
			"x": 1318,
			"y": -119
		},
		"NuhTSn8Odh42LkaceJ48JefNhh2N8xFW": {
			"height": 90,
			"title": "luaCondition",
			"width": 194,
			"x": 2596,
			"y": 1265
		},
		"QbuTgslFeSvCGwzcdoJD0JBO1nz6UxlW": {
			"height": 60,
			"title": "repeat",
			"width": 131,
			"x": 1519,
			"y": 0
		},
		"Qf2dUckVGQGWQkdszBgyLOHjGbNkQYhF": {
			"height": 92,
			"title": "store",
			"width": 180,
			"x": 2102,
			"y": 314
		},
		"Rg2Ht9J83qPWAef4AyRC30D6Qh5vA5H1": {
			"height": 70,
			"title": "roleSplit",
			"width": 202,
			"x": 848,
			"y": 272
		},
		"VuB53RZ9YorVmCfs5htWBovx4WxTAjLx": {
			"height": 94,
			"title": "store",
			"width": 453,
			"x": 1949,
			"y": -126
		},
		"XFJfhAr3wqE4EpJWLM9xTN8zpwH2Gge8": {
			"height": 60,
			"title": "sequence",
			"width": 143,
			"x": 1120,
			"y": 392
		},
		"b3nA7vJ6AIZCoqSqWZgGIxGJsWmx223F": {
			"height": 60,
			"title": "repeat",
			"width": 131,
			"x": 1190,
			"y": 177
		},
		"dbojKMBRT1sHJJRwymMD9S1srqXK28qB": {
			"height": 70,
			"title": "parallel",
			"width": 202,
			"x": 587,
			"y": 195
		},
		"ddxxnJA1PdONRSV5a7EruQvpt1qLnxfl": {
			"height": 72,
			"title": "waitUntil",
			"width": 150,
			"x": 2838,
			"y": 1389
		},
		"fwOxf04wGQlI0e3jXr8MHVjk2nuLtTRh": {
			"height": 92,
			"title": "store",
			"width": 157,
			"x": 1691,
			"y": 72
		},
		"gglvooo4CVoSdQiIpbrRWrNtCVEMh52A": {
			"height": 94,
			"title": "store",
			"width": 219,
			"x": 1978,
			"y": -16
		},
		"hwkPEmMVXfcePqNNYSL6752uf5rw8dgD": {
			"height": 90,
			"title": "luaCondition",
			"width": 194,
			"x": 2569,
			"y": 1048
		},
		"jeVtACBb8TeLNpeGlz0KXQAElXA3SnyM": {
			"height": 72,
			"title": "waitUntil",
			"width": 150,
			"x": 2779,
			"y": 1173
		},
		"jlqdGwuXrQ6vFE1rlfR09WuPYlGfrY0y": {
			"height": 94,
			"title": "store",
			"width": 525,
			"x": 498,
			"y": -404
		},
		"nvqe2nYaP7Y6rzchR6cjJUHTkARbpueV": {
			"height": 94,
			"title": "store",
			"width": 219,
			"x": 1588,
			"y": -130
		},
		"o8tNfX7FstCUAk22igY0ZNupSNLSkOSv": {
			"height": 92,
			"title": "store",
			"width": 131,
			"x": 537,
			"y": -2
		},
		"sOgvi7oQkRs4xgbpqKIkebpWRBe6Fvw1": {
			"height": 156,
			"title": "formation.moveCustomGroup",
			"width": 438,
			"x": 2092,
			"y": 424
		},
		"ujyMMJrQBX3Et42iff1HdeBkIXhSxc2k": {
			"height": 94,
			"title": "store",
			"width": 526,
			"x": 503,
			"y": -594
		},
		"vNTNSJH8GiP9MuTJJBEXBKo9KMdPc8M1": {
			"height": 90,
			"title": "luaCondition",
			"width": 202,
			"x": 1760,
			"y": 388
		},
		"vTsMUgf5OirmFqHWyDi8U3JeY48tEIHS": {
			"height": 60,
			"title": "repeat",
			"width": 131,
			"x": 1535,
			"y": 511
		},
		"yObXvOOwEP1BPecWQjctIPCmRi4sU76A": {
			"height": 94,
			"title": "store",
			"width": 515,
			"x": 506,
			"y": -311
		},
		"yy6bMT8mhK4axvVOFTfAqvvYij4BABWn": {
			"height": 92,
			"title": "nota_schimper_homeworkassignments.sandsail_move_with_commander",
			"width": 525,
			"x": 2886,
			"y": 1261
		}
	},
	"roles": [ {
		"categories": [ "nota_schimper_homeworkassignments.commander" ],
		"name": "role_commander"
	}, {
		"categories": [ "nota_schimper_homeworkassignments.peewee", "nota_schimper_homeworkassignments.soldier" ],
		"name": "role_soldier"
	} ],
	"root": {
		"children": [ {
			"children": [],
			"id": "ujyMMJrQBX3Et42iff1HdeBkIXhSxc2k",
			"nodeType": "luaCommand",
			"parameters": [ {
				"name": "var",
				"value": "coms"
			}, {
				"name": "value",
				"value": "nota_schimper_homeworkassignments.detectCommanderUnits(units)"
			}, {
				"name": "scriptName",
				"value": "store"
			} ],
			"scriptName": "store"
		}, {
			"children": [],
			"id": "DhEhK6Z42IKCiuo6v4yFOP1kkAASXbz1",
			"nodeType": "luaCommand",
			"parameters": [ {
				"name": "var",
				"value": "pewees"
			}, {
				"name": "value",
				"value": "nota_schimper_homeworkassignments.detectPeeweeUnits(units)"
			}, {
				"name": "scriptName",
				"value": "store"
			} ],
			"scriptName": "store"
		}, {
			"children": [],
			"id": "jlqdGwuXrQ6vFE1rlfR09WuPYlGfrY0y",
			"nodeType": "luaCommand",
			"parameters": [ {
				"name": "var",
				"value": "relativePositions"
			}, {
				"name": "value",
				"value": "nota_schimper_homeworkassignments.sandsail_pos_around_com()"
			}, {
				"name": "scriptName",
				"value": "store"
			} ],
			"scriptName": "store"
		}, {
			"children": [],
			"id": "yObXvOOwEP1BPecWQjctIPCmRi4sU76A",
			"nodeType": "luaCommand",
			"parameters": [ {
				"name": "var",
				"value": "pw_index"
			}, {
				"name": "value",
				"value": "nota_schimper_homeworkassignments.sandsail_pw_index(pewees)"
			}, {
				"name": "scriptName",
				"value": "store"
			} ],
			"scriptName": "store"
		}, {
			"children": [],
			"id": "o8tNfX7FstCUAk22igY0ZNupSNLSkOSv",
			"nodeType": "luaCommand",
			"parameters": [ {
				"name": "var",
				"value": "reset"
			}, {
				"name": "value",
				"value": "false"
			}, {
				"name": "scriptName",
				"value": "store"
			} ],
			"scriptName": "store"
		}, {
			"children": [ {
				"children": [ {
					"children": [ {
						"children": [],
						"id": "AG7PxFEHPCxIepOgMhamy6qZXYHWkgtC",
						"nodeType": "luaCommand",
						"parameters": [ {
							"name": "var",
							"value": "wind_direction"
						}, {
							"name": "value",
							"value": "nota_schimper_homeworkassignments.Wind()"
						}, {
							"name": "scriptName",
							"value": "store"
						} ],
						"scriptName": "store"
					}, {
						"children": [],
						"id": "nvqe2nYaP7Y6rzchR6cjJUHTkARbpueV",
						"nodeType": "luaCommand",
						"parameters": [ {
							"name": "var",
							"value": "windChanged"
						}, {
							"name": "value",
							"value": "math.random(3) == 1"
						}, {
							"name": "scriptName",
							"value": "store"
						} ],
						"scriptName": "store"
					} ],
					"id": "ECpJLLzhHnjH5c3vUojgaf3C58skaX7e",
					"nodeType": "sequence",
					"parameters": []
				} ],
				"id": "9ol7BfNPRs5R1WbBFybekRJu5d6MHO5m",
				"nodeType": "repeat",
				"parameters": []
			}, {
				"children": [ {
					"children": [ {
						"children": [],
						"id": "VuB53RZ9YorVmCfs5htWBovx4WxTAjLx",
						"nodeType": "luaCommand",
						"parameters": [ {
							"name": "var",
							"value": "com_pos"
						}, {
							"name": "value",
							"value": "nota_schimper_homeworkassignments.FindCommander()"
						}, {
							"name": "scriptName",
							"value": "store"
						} ],
						"scriptName": "store"
					}, {
						"children": [],
						"id": "gglvooo4CVoSdQiIpbrRWrNtCVEMh52A",
						"nodeType": "luaCommand",
						"parameters": [ {
							"name": "var",
							"value": "comPosChanged"
						}, {
							"name": "value",
							"value": "math.random(3) == 1"
						}, {
							"name": "scriptName",
							"value": "store"
						} ],
						"scriptName": "store"
					} ],
					"id": "4mJIyF1Bavc6tppP7sGi3UCfagKlOPyI",
					"nodeType": "sequence",
					"parameters": []
				} ],
				"id": "QbuTgslFeSvCGwzcdoJD0JBO1nz6UxlW",
				"nodeType": "repeat",
				"parameters": []
			}, {
				"children": [ {
					"children": [ {
						"children": [ {
							"children": [],
							"id": "fwOxf04wGQlI0e3jXr8MHVjk2nuLtTRh",
							"nodeType": "luaCommand",
							"parameters": [ {
								"name": "var",
								"value": "windChanged"
							}, {
								"name": "value",
								"value": "false"
							}, {
								"name": "scriptName",
								"value": "store"
							} ],
							"scriptName": "store"
						}, {
							"children": [],
							"id": "D29cyz0N1gRguVPz3KTfNU0CRaPuWETT",
							"nodeType": "luaCommand",
							"parameters": [ {
								"name": "wind",
								"value": "wind_direction"
							}, {
								"name": "scriptName",
								"value": "nota_schimper_homeworkassignments.sandsail_move_with_wind"
							} ],
							"scriptName": "nota_schimper_homeworkassignments.sandsail_move_with_wind"
						} ],
						"id": "DWL8GJ4xdG3okusytCmxya4pMpg2rrlz",
						"nodeType": "luaCondition",
						"parameters": [ {
							"name": "expression",
							"value": "windChanged == true"
						}, {
							"name": "repeat",
							"value": "false"
						} ]
					} ],
					"id": "b3nA7vJ6AIZCoqSqWZgGIxGJsWmx223F",
					"nodeType": "repeat",
					"parameters": []
				}, {
					"children": [ {
						"children": [ {
							"children": [ {
								"children": [],
								"id": "Qf2dUckVGQGWQkdszBgyLOHjGbNkQYhF",
								"nodeType": "luaCommand",
								"parameters": [ {
									"name": "var",
									"value": "comPosChanged"
								}, {
									"name": "value",
									"value": "false"
								}, {
									"name": "scriptName",
									"value": "store"
								} ],
								"scriptName": "store"
							}, {
								"children": [],
								"id": "sOgvi7oQkRs4xgbpqKIkebpWRBe6Fvw1",
								"nodeType": "luaCommand",
								"parameters": [ {
									"name": "groupDefintion",
									"value": "pw_index"
								}, {
									"name": "position",
									"value": "com_pos"
								}, {
									"name": "formation",
									"value": "relativePositions"
								}, {
									"name": "fight",
									"value": "false"
								}, {
									"name": "scriptName",
									"value": "formation.moveCustomGroup"
								} ],
								"scriptName": "formation.moveCustomGroup"
							} ],
							"id": "vNTNSJH8GiP9MuTJJBEXBKo9KMdPc8M1",
							"nodeType": "luaCondition",
							"parameters": [ {
								"name": "expression",
								"value": "comPosChanged == true"
							}, {
								"name": "repeat",
								"value": "false"
							} ]
						} ],
						"id": "vTsMUgf5OirmFqHWyDi8U3JeY48tEIHS",
						"nodeType": "repeat",
						"parameters": []
					} ],
					"id": "XFJfhAr3wqE4EpJWLM9xTN8zpwH2Gge8",
					"nodeType": "sequence",
					"parameters": []
				} ],
				"id": "Rg2Ht9J83qPWAef4AyRC30D6Qh5vA5H1",
				"nodeType": "roleSplit",
				"parameters": [ {
					"name": "mode",
					"value": "all-success"
				} ]
			} ],
			"id": "dbojKMBRT1sHJJRwymMD9S1srqXK28qB",
			"nodeType": "parallel",
			"parameters": [ {
				"name": "mode",
				"value": "all-success"
			} ]
		} ],
		"id": "1sfuHeMx8JaDI4F9G26hVYCsPeuHmcP4",
		"nodeType": "sequence",
		"parameters": []
	}
}